<?xml version="1.0" standalone="no"?>
<svg xmlns="http://www.w3.org/2000/svg" xmlns:xlink="http://www.w3.org/1999/xlink" version="1.1" width="195" height="100">
  <desc>Stylized ERIS text</desc>
  <g id="eris-logo" style="fill: none; stroke: black; stroke-width: 10">
    <path id="symbol" d="M 10,20 A 20,20 0 1,1 10,80 M 40,5 V 95" style="stroke: #404040"/>
    <path id="e" d="M 70,20 A 20,20 0 0,0 70,80 M 40,50 H 70"/>
    <path id="r" d="M 85,85 V 20 H 90 A 20,15 0 1,1 90,50 L 110,85"/>
    <path id="i" d="M 130,5 V 15 M 130,25 V 95"/>
    <path id="s" d="M 185,20 H 180 A 30,30 0 0,0 150,50 H 180 A 30,30 0 0,1 155,80 H 145"/>
  </g>
</svg>
