<?xml version="1.0" standalone="no"?>
<svg xmlns="http://www.w3.org/2000/svg" xmlns:xlink="http://www.w3.org/1999/xlink" version="1.1" width="32" height="32">
  <desc>ERIS logo, &#x2BF0;</desc>
  <defs>
    <clipPath id="inside">
      <circle cx="16" cy="16" r="12"/>
    </clipPath>
  </defs>
  <circle cx="16" cy="16" r="14" fill="goldenrod" stroke="black" stroke-width="2"/>
  <path id="symbol" d="M 6,6 A 8,8 0 0,1 6,26 M 16,1 V 31 M 26,6 A 8,8 0 0,0 26,26" style="fill: none; stroke: black; stroke-width: 2" clip-path="url(#inside)" />
</svg>
